<svg width="24" height="24" viewBox="0 0 24 24" fill="none" xmlns="http://www.w3.org/2000/svg">
<path d="M15.1359 6.0242V4.97511H15.1487L14.3742 4H10.6258L9.85582 4.9694H9.85129V6.02393H6V7.54304H19V6.02393H15.1359V6.0242ZM10.9057 6.0242V4.97511H14.0813V6.0242H10.9057Z" fill="#030303"/>
<path d="M7.35437 19.9999H17.6459L18.301 8.27222H6.69922L7.35437 19.9999ZM15.5385 9.82179H16.3587L15.8767 18.4504H15.0564L15.5385 9.82179ZM12.0907 9.82179H12.9096V18.4504H12.0907V9.82179ZM9.46178 9.82179L9.94383 18.4504H9.12355L8.64151 9.82179H9.46178Z" fill="#030303"/>
</svg>
