<?xml version="1.0" encoding="UTF-8"?>
<svg width="40" height="40" viewBox="0 0 40 40" fill="none" xmlns="http://www.w3.org/2000/svg">
    <rect width="40" height="40" fill="black"/>
    <path d="M18.1676 10.445C18.0852 9.78058 17.7277 9.18423 17.1856 8.80711L17.1704 8.7966C16.6943 8.46522 16.1164 8.28395 15.5457 8.3673C14.4981 8.52045 13.7482 9.32925 13.5965 10.3024L13.0003 14.1272C12.9993 14.1343 13.0012 14.1414 13.0059 14.1468L15.1905 16.7118C15.1952 16.7172 15.1972 16.7243 15.1962 16.7314L14.2478 23.0182C14.2468 23.9086 14.2458 24.7842 14.2444 25.6746L15.1802 31.979C15.1819 31.9909 15.1919 31.9997 15.2035 31.9997H16.4795C16.4912 31.9997 16.5011 31.9909 16.5028 31.979L17.4406 25.6753C17.4396 24.7842 17.4389 23.9083 17.4379 23.0168L16.4892 16.7219C16.4882 16.7152 16.4902 16.7081 16.4945 16.7026L18.617 14.1461C18.6214 14.141 18.6234 14.1343 18.6224 14.1275L18.1666 10.4447L18.1676 10.445Z" fill="white"/>
    <path d="M26.9697 14.4094L26.9993 11.9535C27.0023 11.7106 26.9936 11.4673 26.9737 11.225L26.7115 8.04981L26.6116 8L26.5116 8.04981L26.2192 11.5883L26.2139 11.6672L25.6947 11.6774L25.688 11.5883L25.3956 8.04981L25.296 8L25.1957 8.04981L24.9036 11.5883L24.8946 11.6947L24.3665 11.7272L24.3516 11.5883L24.0591 8.04981L23.9592 8L23.8593 8.04981L23.5671 11.5883L23.5578 11.6947L23.0184 11.7174L23.0058 11.5883L22.7137 8.04981L22.6134 8L22.5135 8.04981L22.2532 11.388C22.2376 11.5889 22.2297 11.7902 22.23 11.9915L22.231 14.3877L23.9569 16.7541C23.9605 16.7592 23.9622 16.766 23.9612 16.7721L22.9713 23.3235C22.9703 24.0093 22.9696 24.6835 22.9686 25.3693L23.9496 31.9793C23.9512 31.9912 23.9612 32 23.9728 32H25.2489C25.2605 32 25.2704 31.9912 25.2721 31.9793L26.2554 25.3704C26.2547 24.6839 26.254 24.0093 26.253 23.3228L25.2638 16.7724C25.2628 16.766 25.2645 16.7596 25.2681 16.7545L26.9694 14.4097L26.9697 14.4094Z" fill="white"/>
</svg>