<?xml version="1.0" encoding="UTF-8"?>
<svg width="40px" height="40px" viewBox="0 0 40 40" version="1.1" xmlns="http://www.w3.org/2000/svg" xmlns:xlink="http://www.w3.org/1999/xlink">
    <title>WastePaperTransferPoint</title>
    <g id="Page-1" stroke="none" stroke-width="1" fill="none" fill-rule="evenodd">
        <g id="icons" transform="translate(-97.000000, -325.000000)">
            <g id="WastePaperTransferPoint" transform="translate(97.000000, 325.000000)">
                <polygon id="Fill-15" fill="#000000" points="0 39.719 39.719 39.719 39.719 2.48689958e-14 0 2.48689958e-14"></polygon>
                <path d="M25.3368,25.2296 L25.0938,22.3646 L26.0848,22.8306 C26.4408,20.8216 25.4688,18.8746 23.6438,17.8486 L24.0378,17.0476 C26.1438,18.2316 27.1528,20.7526 26.6558,23.0986 L27.6958,23.5866 L25.3368,25.2296 Z M17.2648,25.5936 L16.2768,26.1806 L16.2418,23.3056 L18.7488,24.7116 L17.8078,25.2716 C19.2698,26.6946 21.4278,26.9816 23.3018,26.0476 L23.7428,26.8236 C21.5808,27.9016 18.9268,27.3216 17.2648,25.5936 L17.2648,25.5936 Z M19.9968,16.4386 L19.9758,15.2906 L22.4908,16.6806 L20.0278,18.1636 L20.0088,17.0696 C18.0498,17.6356 16.7318,19.3696 16.6158,21.4596 L15.7248,21.4596 C15.8568,19.0476 17.6738,17.0286 19.9968,16.4386 L19.9968,16.4386 Z M29.0298,9.4176 L26.7368,9.5936 L12.7718,10.6656 L13.0068,33.2436 L29.6608,33.2436 L29.0298,9.4176 Z M26.6548,6.4756 L10.0578,6.4756 L10.6308,30.3016 L11.3518,30.3016 C11.4438,26.2616 11.8488,9.1296 11.8488,9.1296 L26.6908,7.8346 L26.6548,6.4756 Z" id="Fill-16" fill="#FFFFFF"></path>
            </g>
        </g>
    </g>
</svg>