<svg width="40" height="40" viewBox="0 0 40 40" fill="none" xmlns="http://www.w3.org/2000/svg">
<rect width="40" height="40" fill="black"/>
<path d="M25.2441 13.4128L27.9676 10.2558L28.9678 8L29.9389 9.4718L29.2325 10.953L31.2633 11.8174L32.3226 12.9934L34 13.5525L33.0289 16.059L30.1154 15.4614L28.7027 16.5852L25.2441 13.4128Z" fill="white"/>
<path d="M26.8599 30.2108L26.9258 25.3304L28.0518 20.873L28.0015 16.9438L24.225 14.1834L21.6396 16.5852L18.9025 16.9363L10.0739 16.5852L9.27931 14.5291L9.32124 12.2926H8.41845L8.21961 14.6143L9.14675 17.7497L8.0543 19.4165L8.11699 22.0745L9.27931 25.1676L8 29.457L8.94232 32H10.799L11.2957 31.1976L10.236 29.4715L11.8431 25.3583L13.9246 24.0732L17.8073 22.8498L22.1655 23.6946L23.6772 24.918L25.5355 31.2517L26.6279 32H28.2834V30.9916L26.8599 30.2108Z" fill="white"/>
</svg>
