<svg width="16" height="16" viewBox="0 0 16 16" fill="none" xmlns="http://www.w3.org/2000/svg">
<g clip-path="url(#clip0_2081_3364)">
<path d="M1 8L14 8" stroke="#030303" stroke-linecap="square" stroke-linejoin="round"/>
<path d="M9 2L15 8L9 14" stroke="#030303" stroke-linecap="square" stroke-linejoin="round"/>
</g>
<defs>
<clipPath id="clip0_2081_3364">
<rect width="16" height="16" fill="white"/>
</clipPath>
</defs>
</svg>
