<svg width="21" height="20" viewBox="0 0 21 20" fill="none" xmlns="http://www.w3.org/2000/svg">
<g id="mobile/icon/20/Davau_karte" clip-path="url(#clip0_3215_19624)">
<path id="Vector" d="M20.5 0H0.5V20H20.5V0Z" fill="#030303"/>
<path id="Fill-12" fill-rule="evenodd" clip-rule="evenodd" d="M6.78478 12.8481L8.38038 11.1347H4.70354L4.5 16L9.95633 15.8078V11.1347L7.06748 13.7968L6.78478 12.8481ZM14.8782 13.2105L13.5498 13.5676L11.0508 11.1347L11.0431 15.8274L16.5 16V11.1347H12.6196L14.8782 13.2105ZM12.7095 6.93944L11.4275 10.0479L14.4063 8.68799L13.9462 7.36974L12.7095 6.93944ZM14.6235 6.5883C14.6235 6.5883 15.1901 8.83618 15.1901 8.91474C15.1901 8.99211 13.0612 10.0479 13.0612 10.0479H16.3226L16.5 4H11.2258L11.0431 7.19476V8.932L12.3976 6.06338L14.6235 6.5883ZM7.52753 7.2394L7.06748 8.83618L9.95633 10.0479L9.16835 7.59054L7.52753 7.2394ZM4.5 4V10.0479L7.74892 9.85627L6.26462 8.98378L7.06748 6.48415L9.44153 6.88767L10.0539 8.40649L9.95633 4H4.5Z" fill="#EACEBF"/>
</g>
<defs>
<clipPath id="clip0_3215_19624">
<rect width="20" height="20" fill="white" transform="translate(0.5)"/>
</clipPath>
</defs>
</svg>
