<svg width="70" height="70" viewBox="0 0 70 70" fill="none" xmlns="http://www.w3.org/2000/svg">
<g clip-path="url(#clip0_1828_1621)">
<path d="M0 0H70V70H0" fill="#030303"/>
<path d="M43.7114 19.7603L39.2175 17.8543C38.1505 19.2012 36.2774 19.7291 34.6179 19.025C32.9584 18.3214 32.0374 16.6087 32.2661 14.906L27.7723 13L15 43.0576L19.4299 45.0517L43.7109 19.7593L43.7114 19.7603Z" fill="white"/>
<path d="M51.5506 30.4615C50.0564 31.3111 48.1218 31.0992 46.8472 29.8258C45.5726 28.5525 45.3605 26.6198 46.2109 25.127L43.1952 22.1143L23.2982 43.6414L21.0039 46.1237L23.1173 48.235C24.6 47.4393 26.4872 47.6658 27.7387 48.916C28.9901 50.1662 29.2173 52.0516 28.4203 53.5328L31.891 57L55.0032 33.9106L51.5512 30.462L51.5506 30.4615Z" fill="white"/>
<path d="M26.1531 40.5131L25.4922 41.1721L26.316 41.9982L26.9769 41.3392L26.1531 40.5131Z" fill="#030303"/>
<path d="M34.2587 49.9669L32.6039 48.3075L33.2647 47.6485L34.9195 49.308L34.2587 49.9669ZM31.6113 47.3111L29.9565 45.6517L30.6173 44.9927L32.2721 46.6522L31.6113 47.3111ZM28.9634 44.6558L27.3086 42.9963L27.9694 42.3374L29.6242 43.9969L28.9634 44.6558Z" fill="#030303"/>
<path d="M35.9109 50.3004L35.25 50.9595L36.0738 51.7856L36.7347 51.1265L35.9109 50.3004Z" fill="#030303"/>
<path d="M17.6231 35.7156L17.2227 36.5586L18.2765 37.0592L18.6769 36.2162L17.6231 35.7156Z" fill="#030303"/>
<path d="M25.0507 40.2794L22.9339 39.2737L23.3343 38.4309L25.4511 39.4366L25.0507 40.2794ZM21.6637 38.6699L19.5469 37.6642L19.9473 36.8214L22.0641 37.8271L21.6637 38.6699Z" fill="#030303"/>
</g>
<defs>
<clipPath id="clip0_1828_1621">
<rect width="70" height="70" fill="white"/>
</clipPath>
</defs>
</svg>
