<svg width="70" height="70" viewBox="0 0 70 70" fill="none" xmlns="http://www.w3.org/2000/svg">
<g id="desktop/icon/70/Coworking" clip-path="url(#clip0_1828_2030)">
<path id="Vector" d="M70 0H0V70H70V0Z" fill="#030303"/>
<path id="Vector_2" d="M35 14C23.4018 14 14 23.4024 14 35C14 46.5976 23.4024 56 35 56C46.5976 56 56 46.5976 56 35C56 23.4024 46.5976 14 35 14ZM36.0189 35.9449L35.033 36.6547L31.9065 38.9208L19.3472 41.3294L19.1208 40.7378L30.0323 35.1605L34.0153 35.0093L32.9572 30.8453L34.6884 16.7377H35.3204L37.3141 31.0524L36.0189 35.9443V35.9449Z" fill="white"/>
</g>
<defs>
<clipPath id="clip0_1828_2030">
<rect width="70" height="70" fill="white"/>
</clipPath>
</defs>
</svg>
